[{"image_src": "https://cf.geekdo-images.com/itemrep/img/CD2xGCSCAzfBYwh94ufWy7MQdfw=/fit-in/246x300/pic3772064.png", "rating": "5.5", "title": "5 Second Rule", "game_length": "30 Min", "players": "3\u20136", "age": "10+", "complexity": "1.17 / 5", "description": "Publisher Description:\nIt should be easy to name 3 breeds of dogs - but can you do it under the pressure of 5 seconds twisting down, and with the other players staring at you, waiting for you to get flustered? Time's not on your side, so just say what comes to mind and risk ridiculous answers slipping out as time twirls down on the unique twisted timer! It's all in good fun with this fast-paced game where you have to \"Just Spit It Out!\""}, {"image_src": "https://cf.geekdo-images.com/itemrep/img/FtC0e8RUs5GALMIMjFgyef6nYnc=/fit-in/246x300/pic2602138.jpg", "rating": "6.9", "title": "6 nimmt!", "game_length": "45 Min", "players": "2\u201310", "age": "8+", "complexity": "1.22 / 5", "description": "In 6 nimmt!, a.k.a. Category 5 and many other names, you want to score as few points as possible."}, {"image_src": "https://cf.geekdo-images.com/itemrep/img/fR5_q-7pMDmhLP8SPLOwPcUeLVo=/fit-in/246x300/pic860217.jpg", "rating": "7.8", "title": "7 Wonders", "game_length": "30 Min", "players": "2\u20137", "age": "10+", "complexity": "2.34 / 5", "description": "You are the leader of one of the 7 great cities of the Ancient World. Gather resources, develop commercial routes, and affirm your military supremacy. Build your city and erect an architectural wonder which will transcend future times."}, {"image_src": "https://cf.geekdo-images.com/itemrep/img/hWxcNzC1olqP42dwYGjwW5qGQAs=/fit-in/246x300/pic3376065.jpg", "rating": "8.1", "title": "7 Wonders Duel", "game_length": "30 Min", "players": "2", "age": "10+", "complexity": "2.23 / 5", "description": "In many ways 7 Wonders Duel resembles its parent game 7 Wonders as over three ages players acquire cards that provide resources or advance their military or scientific development in order to develop a civilization and complete wonders."}, {"image_src": "https://cf.geekdo-images.com/itemrep/img/-Wowk7fN7tx3tqxeIO89F6Wp4Fw=/fit-in/246x300/pic1380423.jpg", "rating": "7.8", "title": "7 Wonders: Cities", "game_length": "40 Min", "players": "2\u20138", "age": "10+", "complexity": "2.35 / 5", "description": "7 Wonders: Cities, the second expansion for 7 Wonders, includes optional team rules, adds an 8th player (base game supports 7 players), a new type of card (black, representing the remains of cities), and new cards of old types (two new wonders: Petras and Byzantium, 3 new guild and 6 new leader cards). This expansion is more aggressive, with greatly increased interaction between players, who are still trying to score more points than anyone else."}, {"image_src": "https://cf.geekdo-images.com/itemrep/img/G7hzLpaU0qwvDMpsKv40k4bIiwY=/fit-in/246x300/pic1046319.jpg", "rating": "7.8", "title": "7 Wonders: Leaders", "game_length": "40 Min", "players": "2\u20137", "age": "13+", "complexity": "2.28 / 5", "description": "7 Wonders: Leaders adds 42 new cards to the base game
of 7 Wonders, comprising four new guilds, one new wonder card, and 36 (+1 blank) white \"Leader\" cards. At the start of the game, each player takes a hand of four leaders and may play one at the start of each of the three Ages. Unlike the standard cards, leaders cost money (not resources). The expansion comes with a new Wonder\u2014the ancient city of Rome\u2014and contains 6-gold tokens made of cardboard for more efficient money-management."}, {"image_src": "https://cf.geekdo-images.com/itemrep/img/7sBxo8IttgcNBkd2QuLOPSqchG4=/fit-in/246x300/pic2398773.jpg", "rating": "7.5", "title": "Above and Below", "game_length": "90 Min", "players": "2\u20134", "age": "13+", "complexity": "2.53 / 5", "description": "Your last village was ransacked by barbarians. You barely had time to pick up the baby and your favorite fishing pole before they started the burning and pillaging. You wandered over a cruel desert, braved frozen peaks, and even paddled a log across a rough sea, kicking at the sharks whenever they got too close, the baby strapped tightly to your back."}, {"image_src": "https://cf.geekdo-images.com/itemrep/img/k_HYyUUFiE8vtTwXuVw6Lq46-fg=/fit-in/246x300/pic3476604.jpg", "rating": "7.2", "title": "Adrenaline", "game_length": "30\u201360 Min", "players": "3\u20135", "age": "12+", "complexity": "2.30 / 5", "description": "In the future, war has left the world in complete destruction and split the people into factions. The factions have decided to stop the endless war and settle their dispute in the arena. A new virtual bloodsport was created. The Adrenaline tournament. Every faction has a champion, every champion has a chance to fight and the chance to win. Will you take
the chance of becoming the next champion of the Adrenaline tournament?"}, {"image_src": "https://cf.geekdo-images.com/itemrep/img/n-tlhXQK6UR15F2NDOZpuIUoJA0=/fit-in/246x300/pic3029377.jpg", "rating": "8.1", "title": "Agricola (Revised Edition)", "game_length": "30\u2013120 Min", "players": "1\u20134", "age": "12+", "complexity": "3.39 / 5", "description": "Updated and streamlined for a new generation of players, Agricola, the award-winning and highly acclaimed game by Uwe Rosenberg, features a revised rulebook and gameplay, along with wood pieces and components for up to four players."}, {"image_src": "https://cf.geekdo-images.com/itemrep/img/mca3Duh6XHjf8I-aXWHr9xDXuEM=/fit-in/246x300/pic2241156.png", "rating": "7.7", "title": "Alchemists", "game_length": "120 Min", "players": "2\u20134", "age": "13+", "complexity": "3.85 / 5", "description": "In Alchemists, two to four budding alchemists compete to discover the secrets of their mystical art. Points can be earned in various ways, but most points are earned by publishing theories \u2013 correct theories, that is \u2014 and therein lies the problem."}, {"image_src": "https://cf.geekdo-images.com/itemrep/img/pIvBh4fgp6ZPuWObgtJkK29qPwA=/fit-in/246x300/pic1502118.jpg", "rating": "7.0", "title": "Alhambra", "game_length": "45\u201360 Min", "players": "2\u20136", "age": "8+", "complexity": "2.11 / 5", "description": "Granada, 1278. At the foot of the Sierra Nevada mountains, one of the most exciting and interesting project of the Spanish Middle Ages begins: the construction of the ALHAMBRA."}, {"image_src": "https://cf.geekdo-images.com/itemrep/img/LNe6AxiVNFGnK33vt0eOQ5DT6Vg=/fit-in/246x300/pic1861451.jpg", "rating": "5.0", "title": "Alternatywy 4", "game_length": "90 Min", "players": "3\u20136", "age": "12+", "complexity": "3.25 / 5", "description": "Board game inspired by the popular Polish television series. The game's story is centered around the inhabitants of the Warsaw block of flats. The game is irony of life in communism Poland."}, {"image_src": "https://cf.geekdo-images.com/itemrep/img/ql-0-t271LVGqbmWA1gdkIH7WvM=/fit-in/246x300/pic3718275.jpg", "rating": "7.9", "title": "Azul", "game_length": "30\u201345 Min", "players": "2\u20134", "age": "8+", "complexity": "1.80 / 5", "description": "Introduced by the Moors, azulejos (originally white and blue ceramic tiles) were fully embraced by the Portuguese when their king Manuel I, on a visit to the Alhambra palace in Southern Spain, was mesmerized by the stunning beauty of the Moorish decorative tiles. The king, awestruck by the interior beauty of the Alhambra, immediately ordered that his own palace in Portugal be decorated with similar wall tiles. As a tile-laying artist, you have been challenged to embellish the walls of the Royal Palace of Evora."}, {"image_src": "https://cf.geekdo-images.com/itemrep/img/7nn1T4kQShFxuptJ-NxBVcw1Akw=/fit-in/246x300/pic1170986.jpg", "rating": "6.5", "title": "BANG!", "game_length": "20\u201340 Min", "players": "4\u20137", "age": "10+", "complexity": "1.64 / 5", "description": "\"The Outlaws hunt the Sheriff. The Sheriff
hunts the Outlaws. The Renegade plots secretly, ready to take one side or the other. Bullets fly. Who among the gunmen is a Deputy, ready to sacrifice himself for the Sheriff? And who is a merciless Outlaw, willing to kill him? If you want to find out, just draw (your cards)!\" (From back of box)"}, {"image_src": "https://cf.geekdo-images.com/itemrep/img/OCJ1dopYfqAxQevemeTKK84A4lo=/fit-in/246x300/pic2909713.jpg", "rating": "7.0", "title": "BANG! The Dice Game", "game_length": "15 Min", "players": "3\u20138", "age": "8+", "complexity": "1.28 / 5", "description": "In the U.S. wild west, the eternal battle between the law and the outlaws keeps heating up. Suddenly, a rain of arrows darken the sky: It's an Indian attack! Are you bold enough to keep up with the Indians? Do you have the courage to challenge your fate? Can you expose and defeat the ruthless gunmen around you?"}, {"image_src": "https://cf.geekdo-images.com/itemrep/img/Gnfh9EVdYiImKfpkCjn3PLN6R3I=/fit-in/246x300/pic3486218.jpg", "rating": "7.4", "title": "B\u00e4renpark", "game_length": "30\u201345 Min", "players": "2\u20134", "age": "8+", "complexity": "1.72 / 5", "description": "Up to two thousand pounds in weight and over ten feet tall, the bear is considered the biggest and heaviest terrestrial carnivore in the world. Of course, there is not just \"one bear\"; on the contrary, there are plenty of subspecies that differ from each
other in various aspects. For instance, only the Kodiak bear (ursus arctos middendorffi) weighs about 2,000 lbs. The polar bear (ursus maritimus) weighs \"only\" 1,100 lbs., but gets much bigger than the Kodiak bear, being as much as 11 ft. tall!"}, {"image_src": "https://cf.geekdo-images.com/itemrep/img/9telPeuPVlTKZ_LTyVLmJzDSVj4=/fit-in/246x300/pic1410600.jpg", "rating": "6.6", "title": "Bee Alert", "game_length": "15 Min", "players": "2\u20135", "age": "4+", "complexity": "1.17 / 5", "description": "In Bee Alert, a.k.a. Honigbienchen, six colored plastic bees are hidden below six beehives with players initially knowing which bees are where."}, {"image_src": "https://cf.geekdo-images.com/itemrep/img/rQJ2f8rlN5dCYYyBFl0o4EwlGvU=/fit-in/246x300/pic2197702.jpg", "rating": "6.9", "title": "Blokus", "game_length": "20 Min", "players": "2\u20134", "age": "5+", "complexity": "1.78 / 5", "description": "Blokus (officially pronounced \"Block us\") is an abstract strategy game with transparent, Tetris-shaped, colored pieces that players are trying to play onto the board. The only caveat to placing a piece is that it may not lie adjacent to your other pieces, but instead must be placed touching at least one corner of your pieces already on the board."}, {"image_src": "https://cf.geekdo-images.com/itemrep/img/IBtRtMGWMXEXCVHroWqbbPT8I1g=/fit-in/246x300/pic2439223.jpg", "rating": "8.0", "title": "Blood Rage", "game_length": "60\u201390 Min", "players": "2\u20134", "age": "14+", "complexity": "2.89 / 5", "description": "\"Life is Battle; Battle is Glory; Glory is ALL\""}, {"image_src": "https://cf.geekdo-images.com/itemrep/img/4AzuGvig9XPrkUna_JAvtoAePTw=/fit-in/246x300/pic2618699.jpg", "rating": "7.0", "title": "The Bloody Inn", "game_length": "30\u201360 Min", "players": "1\u20134", "age": "14+", "complexity": "2.38 / 5", "description": "France 1831: In a remote corner of Ard\u00e8che, the little village of Peyrebeille sees numerous travelers pass through. A family of greedy rural farmers is determined to make its fortune and has devised a diabolical stratagem to achieve this goal: Invest in an inn so they can rob traveling guests, getting rich without arousing the suspicions of the police! Whether or not their plan will work out, one thing is certain: Not every guest will leave this inn alive."}, {"image_src": "https://cf.geekdo-images.com/itemrep/img/eAfbdStURGyRFdyxccmigu-vR1M=/fit-in/246x300/pic2546156.jpg", "rating": "7.2", "title": "Broom Service", "game_length": "30\u201375 Min", "players": "2\u20135", "age": "10+", "complexity": "2.39 / 5", "description": "Score the most victory points by delivering potions via Broom Service throughout the magical realm."}, {"image_src": "https://cf.geekdo-images.com/itemrep/img/Qreg9v-cpTnvR1NBtnaLPbalGuU=/fit-in/246x300/pic3613444.jpg", "rating": "7.4", "title": "Bunny Kingdom", "game_length": "40\u201360 Min", "players": "2\u20134", "age": "12+", "complexity": "2.28 / 5", "description": "Peace has come at last to the great Bunny Kingdom! Lead your clan of rabbits to glory by gathering resources and building new cities across the land!"}, {"image_src": "https://cf.geekdo-images.com/itemrep/img/7dpJ9QM2tTkV7uhk5BsFzx9eETU=/fit-in/246x300/pic2907864.jpg", "rating": "7.0", "title": "Ca$h 'n Guns (Second Edition)", "game_length": "30 Min", "players": "4\u20138", "age": "10+", "complexity": "1.27 / 5", "description": "In an abandoned warehouse a gangster band is splitting its loot, but they can't agree on the split! It's time to let the guns talk and soon everyone is aiming at everyone. The richest surviving gangster wins the game!"}, {"image_src": "https://cf.geekdo-images.com/itemrep/img/fGeF_x94yRtoVEZ7hiWVg0T3ZSA=/fit-in/246x300/pic2379288.jpg", "rating": "7.1", "title": "Cacao", "game_length": "45 Min", "players": "2\u20134", "age": "8+", "complexity": "1.82 / 5", "description": "Cacao is a tile-placement game that immerses players in the exotic world of
the \"fruit of the Gods\". As the chief of your tribe, you must lead your people to prosperity through the cultivation and trade of cacao \u2014 and to do that, you'll need to put them to work in the best way possible."}, {"image_src": "https://cf.geekdo-images.com/itemrep/img/XUqR7TfKt1c5jQ20hL87Coi9DmI=/fit-in/246x300/pic2031446.png", "rating": "7.1", "title": "Camel Up", "game_length": "20\u201330 Min", "players": "2\u20138", "age": "8+", "complexity": "1.48 / 5", "description": "In Camel Up, up to eight players bet on five racing camels, trying to suss out which will place first and second in a quick race around a pyramid. The earlier you place your bet, the more you can win \u2014 should you guess correctly, of course. Camels don't run neatly, however, sometimes landing on top of another one and being carried toward the finish line. Who's going to run when? That all depends on how the dice come out of the pyramid dice shaker, which releases one die at a time when players pause from their bets long enough to see who's actually moving!"}, {"image_src": "https://cf.geekdo-images.com/itemrep/img/IH6ugGHtABoMshU9IpZjruk_cds=/fit-in/246x300/pic2337577.jpg", "rating": "7.4", "title": "Carcassonne", "game_length": "30\u201345 Min", "players": "2\u20135", "age": "8+", "complexity": "1.93 / 5", "description": "Carcassonne is a tile-placement game in which the players draw and place a tile with a piece of southern French landscape on it. The tile might feature a city, a road, a cloister, grassland or some combination thereof, and it must be placed adjacent to tiles that have already been played, in such a way that cities are connected to cities, roads to roads, etcetera. Having placed a tile, the player can then decide to place one of his meeples on one of the areas on it: on the city as a knight, on the road as a robber, on a cloister as a monk, or on the grass as a farmer. When that area is complete, that meeple scores points for its owner."}, {"image_src": "https://cf.geekdo-images.com/itemrep/img/k6uObSP3e1Er1sSv-hO5_J4yRLE=/fit-in/246x300/pic1176894.jpg", "rating": "8.1", "title": "The Castles of Burgundy", "game_length": "30\u201390 Min", "players": "2\u20134", "age": "12+", "complexity": "3.02 / 5", "description": "The game is set in the Burgundy region of High Medieval France. Each player takes on the role of an aristocrat, originally controlling a small princedom. While playing they aim to build settlements and powerful castles, practice trade along the river, exploit silver mines, and use the knowledge of travelers."}, {"image_src": "https://cf.geekdo-images.com/itemrep/img/Imzfs6eUrl4m6kg745cZJ0Zj7-Q=/fit-in/246x300/pic1961827.jpg", "rating": "7.6", "title": "Castles of Mad King Ludwig", "game_length": "90 Min", "players": "1\u20134", "age": "13+", "complexity": "2.66 / 5",
"description": "In the tile-laying game Castles of Mad King Ludwig, players are tasked with building an amazing, extravagant castle for King Ludwig II of Bavaria...one room at a time. You see, the King loves castles, having built Neuschwanstein (the castle that inspired the Disney theme park castles) and others, but now he's commissioned you to build the biggest, best castle ever \u2014 subject, of course, to his ever-changing whims. Each player acts as a building contractor who is adding rooms to the castle he's building while also selling his services to other players."}, {"image_src": "https://cf.geekdo-images.com/itemrep/img/aozRplCSOpRucLxSuClX2odEUBQ=/fit-in/246x300/pic2419375.jpg", "rating": "7.2", "title": "Catan", "game_length": "60\u2013120 Min", "players": "3\u20134", "age": "10+", "complexity": "2.34 / 5", "description": "In
Catan (formerly The Settlers of Catan), players try to be the dominant force on the island of Catan by building settlements, cities, and roads. On each turn dice are rolled to determine what resources the island produces. Players collect these resources (cards)\u2014wood, grain, brick, sheep, or stone\u2014to build up their civilizations to get to 10 victory points and win the game."}, {"image_src": "https://cf.geekdo-images.com/itemrep/img/S7kxQBdyhhQw18k7-cLHf5a7w5w=/fit-in/246x300/pic2420315.jpg", "rating": "7.5", "title": "Catan: Cities & Knights", "game_length": "90 Min", "players": "3\u20134", "age": "12+", "complexity": "2.90 / 5", "description": "Adds several new aspects to Settlers of Catan but the two major ones are creating knights to protect the land from invading barbarians and building city improvements that confer benefits upon that city's owner. Adds tactical complexity to the game and game length."}, {"image_src": "https://cf.geekdo-images.com/itemrep/img/QwBOuD-kVtDTkowpVQldIFv46m8=/fit-in/246x300/pic1790789.jpg", "rating": "8.1", "title": "Caverna: The Cave Farmers", "game_length": "30\u2013210 Min", "players": "1\u20137", "age": "12+", "complexity": "3.79 / 5", "description": "Following along the same lines as its predecessor (Agricola), Caverna: The Cave Farmers is a worker-placement game at heart, with a focus on farming. In the game, you are the bearded leader of a small dwarf family that lives in a little cave in the mountains. You begin the game with a farmer and his spouse, and each member of the farming family represents an action that the player can take each turn. Together, you cultivate the forest in front of your cave and dig deeper into the mountain. You furnish the caves as dwellings for your offspring as well as working spaces for small enterprises."}, {"image_src": "https://cf.geekdo-images.com/itemrep/img/vQbix3G26fqkqun5Q_bGZW6SIyk=/fit-in/246x300/pic2577990.jpg", "rating": "7.0", "title": "Celestia", "game_length": "30 Min", "players": "2\u20136", "age": "8+", "complexity": "1.34 / 5", "description": "In Celestia, a revamped version of Cloud 9, you board an aircraft with a team of adventurers to perform many trips through the cities of Celestia and recover their wonderful treasures. Your journey will not be safe, but you will attempt to be the richest adventurer by collecting the most precious treasures!"}, {"image_src": "https://cf.geekdo-images.com/itemrep/img/lRqrMu1D8qUcy-YuU8zuPYzOUqo=/fit-in/246x300/pic2798464.jpg", "rating": "6.1", "title": "Chabyrinthe", "game_length": "15 Min", "players": "2\u20134", "age": "6+", "complexity": "1.36 / 5", "description": "In Chabyrinthe, players try to help cats reach a sweet home."}, {"image_src": "https://cf.geekdo-images.com/itemrep/img/SC13k19uVqdU3advU34K_FsXufc=/fit-in/246x300/pic2869714.jpg", "rating": "7.8", "title": "Champions of Midgard", "game_length": "60\u201390 Min", "players": "2\u20134", "age": "10+", "complexity": "2.58 / 5", "description": "Champions of Midgard is a middleweight, Viking-themed, worker placement game with dice rolling in which players are leaders of Viking clans who have traveled to an embattled Viking harbor town to help defend it against the threat of trolls, draugr, and other mythological Norse beasts. By defeating these epic creatures, players gain glory and the favor of the gods. When the game ends, the player who has earned the most glory earns the title of Jarl and is recognized as a champion of Midgard!"}, {"image_src": "https://cf.geekdo-images.com/itemrep/img/j3KnNONTvPaOqyY_pwhS9C9s5bk=/fit-in/246x300/pic2582929.jpg", "rating": "7.7", "title": "Codenames", "game_length": "15 Min", "players": "2\u20138", "age": "14+", "complexity": "1.31 / 5", "description": "Two rival spymasters know the secret identities of 25 agents. Their teammates know the agents only by their CODENAMES."}, {"image_src": "https://cf.geekdo-images.com/itemrep/img/y_EnaXP1QnVRhShv8kWECPrX-hg=/fit-in/246x300/pic2869710.jpg", "rating": "7.2", "title": "Colt Express", "game_length": "30\u201340 Min", "players": "2\u20136", "age": "10+", "complexity": "1.81 / 5", "description": "On the 11th of July, 1899 at 10 a.m., the Union Pacific Express has left Folsom, New Mexico, with 47 passengers on board. After a few minutes, gunfire and hurrying footsteps on the roof can be heard. Heavily armed bandits have come to rob honest citizens of their wallets and jewels. Will they succeed in stealing the suitcase holding the Nice Valley Coal Company's weekly pay, despite it having been placed under the supervision of Marshal Samuel Ford? Will these bandits hinder one another more than the Marshal since only the richest one of them can come out on top?"}, {"image_src": "https://cf.geekdo-images.com/itemrep/img/EYd08uZwPaw5EZJEQ4NxYyUsmR8=/fit-in/246x300/pic3453267.jpg", "rating": "8.1", "title": "Concordia", "game_length": "100 Min", "players": "2\u20135", "age": "13+", "complexity": "3.09 / 5", "description": "Two thousand years ago, the Roman Empire ruled the lands around the Mediterranean Sea. With peace at the borders, harmony inside the provinces, uniform law, and a common currency, the economy thrived and gave rise to mighty Roman dynasties as they expanded throughout the numerous cities. Guide one of these dynasties and send colonists to the remote realms of the Empire; develop your trade network; and appease the ancient gods for their favor \u2014 all to gain the chance to emerge victorious!"}, {"image_src": "https://cf.geekdo-images.com/itemrep/img/MjoL35KU3jLfq6FLkFpky1dDTNA=/fit-in/246x300/pic4243113.jpg", "rating": "7.6", "title": "Cosmic Encounter", "game_length": "60\u2013120 Min", "players": "3\u20135", "age": "12+", "complexity": "2.57 / 5", "description": "From the Manufacturer"}, {"image_src": "https://cf.geekdo-images.com/itemrep/img/YagP_lOlQ6JatuWv-49IhIWHZKE=/fit-in/246x300/pic79413.jpg", "rating": "7.8", "title": "Crokinole", "game_length": "30 Min", "players": "2\u20134", "age": "8+", "complexity": "1.27 / 5", "description": "This game is like shuffleboard in the round. Players take turns flicking disks on a board, trying to score points by attaining central regions. The main stipulation being that contact with the other teams' pieces must be made in order for the disk to remain on the board afterward. Although the game uses quite a bit of skill to flick the disks, there's a very significant strategy element to the game. There are many different variants and rules, as this game is very old
and has had many different incarnations over the years."}, {"image_src": "https://cf.geekdo-images.com/itemrep/img/WfNQ2aYth7A3UOdt0YjfquxkiSg=/fit-in/246x300/pic1968267.jpg", "rating": "6.7", "title": "CV", "game_length": "60 Min", "players": "2\u20134", "age": "10+", "complexity": "1.84 / 5", "description": "Have you ever wondered who you would have been if your life had gone differently? How would you direct your life if everything were up to you? Maybe you would be a magician, or travel around the world? Or maybe big business tempts you, and your goal would be to earn a million dollars?"}, {"image_src": "https://cf.geekdo-images.com/itemrep/img/eI4_d7Z4M7U49mmO3ZkuJKDYF3k=/fit-in/246x300/pic584779.jpg", "rating": "7.5", "title": "Cyclades", "game_length": "60\u201390 Min", "players": "2\u20135", "age": "13+", "complexity": "2.82 / 5", "description": "In this latest collaboration between Bruno Cathala and Ludovic Maublanc, players must buy the favor of the gods in their race to be the first player to build two cities in the Ancient Greek island group known as the Cyclades."}, {"image_src": "https://cf.geekdo-images.com/itemrep/img/jEVYXajZNMo_82RJPKZRS8YR6k4=/fit-in/246x300/pic3016500.jpg", "rating": "7.7", "title": "Dead of Winter: A Crossroads Game", "game_length": "60\u2013120 Min", "players": "2\u20135", "age": "13+", "complexity": "3.01 / 5", "description": "Game description from the
publisher:"}, {"image_src": "https://cf.geekdo-images.com/itemrep/img/NhUqgeHkg2-WlnheoI3eQKTGTE4=/fit-in/246x300/pic3759421.jpg", "rating": "7.8", "title": "Decrypto", "game_length": "15\u201345 Min", "players": "3\u20138", "age": "12+", "complexity": "1.85 / 5", "description": "Players compete in two teams in Decrypto, with each trying to correctly interpret the coded messages presented to them by their teammates while cracking the codes they intercept from the opposing team."}, {"image_src": "https://cf.geekdo-images.com/itemrep/img/DBYvbOdPB-xKGMhualCczcUSvWI=/fit-in/246x300/pic1180640.jpg", "rating": "7.7", "title": "Descent: Journeys in the Dark (Second Edition)", "game_length": "120 Min", "players": "2\u20135", "age": "14+", "complexity": "3.21 / 5", "description": "Game description from the publisher:"}, {"image_src": "https://cf.geekdo-images.com/itemrep/img/dItbdLQ_Tvk4IpEoDz3eSimJrjI=/fit-in/246x300/pic1062739.jpg", "rating": "7.2", "title": "Discworld: Ankh-Morpork", "game_length": "60 Min", "players": "2\u20134", "age": "11+", "complexity": "2.22 / 5", "description": "Martin Wallace and Treefrog Games
present Ankh-Morpork, set in the largest city-state in Terry Pratchett's Discworld. Lord Vetinari has disappeared and different factions are trying to take control of the city. Each player has a secret personality with specific victory conditions, which means that you're not sure exactly what the other players need to do in order to win."}, {"image_src": "https://cf.geekdo-images.com/itemrep/img/J1_CMiEUL4fQrV_DNEvJ2rqkvW4=/fit-in/246x300/pic918568.jpg", "rating": "7.5", "title": "Dixit: Odyssey", "game_length": "30 Min", "players": "3\u201312", "age": "8+", "complexity": "1.22 / 5", "description": "Dixit Odyssey is both a standalone game and an expansion (Dixit: Odyssey (expansion)) for Jean-Louis Roubira's Dixit, which won Germany's Spiel des Jahres award in 2010."}, {"image_src": "https://cf.geekdo-images.com/itemrep/img/J1_CMiEUL4fQrV_DNEvJ2rqkvW4=/fit-in/246x300/pic918568.jpg", "rating": "7.5", "title": "Dixit: Odyssey", "game_length": "30 Min", "players": "3\u201312", "age": "8+", "complexity": "1.22 / 5", "description": "Dixit Odyssey is both a standalone game and an expansion (Dixit: Odyssey (expansion)) for Jean-Louis Roubira's Dixit, which won Germany's Spiel des Jahres award in 2010."}, {"image_src": "https://cf.geekdo-images.com/itemrep/img/SRA8jfkcNqgEjGrreZo8U2a36CI=/fit-in/246x300/pic3187001.jpg", "rating": "8.2", "title": "Dominion (Second Edition)", "game_length": "30 Min", "players": "2\u20134", "age": "14+", "complexity": "2.28 / 5", "description": "\"You are a monarch, like your parents before you, a ruler of a small pleasant kingdom of rivers and evergreens. Unlike your parents, however, you have hopes and dreams! You want a bigger and more pleasant kingdom, with more rivers and a wider variety of trees. You want a Dominion! In all directions lie fiefs, freeholds, and feodums. All are small bits of land, controlled by petty lords and verging on anarchy. You will bring civilization to these people, uniting them under your banner."}, {"image_src": "https://cf.geekdo-images.com/itemrep/img/ZnUCbVfMJXx223ub_rRDXl7HBGs=/fit-in/246x300/pic3176771.jpg", "rating": "7.0", "title": "Dream Home", "game_length": "30 Min", "players": "2\u20134", "age": "7+", "complexity": "1.65 / 5", "description": "What would your house look like? Would you rather have a huge bedroom with an elegant canopy bed or a spacious living room with a grand piano? You are going to play a part of designers who will plan a house and add more and more rooms to it."}, {"image_src": "https://cf.geekdo-images.com/itemrep/img/Ng0wVwl4xSa-MeOpuMaq1f7EwDs=/fit-in/246x300/pic1974056.jpg", "rating": "7.9", "title": "Eclipse", "game_length": "60\u2013180 Min", "players": "2\u20136", "age": "14+", "complexity": "3.69 / 5", "description": "The galaxy has been a peaceful place for many years. After the ruthless Terran\u2013Hegemony War (30.027\u201333.364), much effort has been employed by all major spacefaring species to prevent the terrifying events from repeating themselves. The Galactic Council was formed to enforce precious peace, and it has taken many courageous efforts to prevent the escalation of malicious acts. Nevertheless, tension and discord are growing among the seven major species and in the Council itself. Old alliances are shattering, and hasty diplomatic treaties are made in secrecy. A confrontation of the superpowers seems inevitable \u2013 only the outcome of the galactic conflict remains to be seen. Which faction will emerge victorious and lead the galaxy under its rule?"}, {"image_src": "https://cf.geekdo-images.com/itemrep/img/I3jxnXvyAIkwvxeayyy4ZjcMdpU=/fit-in/246x300/pic1872452.jpg", "rating": "7.9", "title": "Eldritch Horror", "game_length": "120\u2013240 Min", "players": "1\u20138", "age": "14+", "complexity": "3.31 / 5", "description": "Game description from the publisher:"}, {"image_src": "https://cf.geekdo-images.com/itemrep/img/V37QoDYI1mfS-HGqPbM2oPboccc=/fit-in/246x300/pic2837103.png", "rating": "7.3", "title": "Elysium", "game_length": "60 Min", "players": "2\u20134", "age": "14+", "complexity": "2.78 / 5", "description": "Mythic Greece. As an upstart demigod, you want to earn the favor of the Olympians and become a figure of legend yourself. Gather heroes and powerful artifacts, please the gods and bear their power to write your own epic tale."}, {"image_src": "https://cf.geekdo-images.com/itemrep/img/5riAGa8MmNoaOIJ8ydbgb6fEjks=/fit-in/246x300/pic3710565.png", "rating": "7.1", "title": "Enchanters", "game_length": "30\u201360 Min", "players": "2\u20134", "age": "14+", "complexity": "1.86 / 5", "description": "In the fantasy card-drafting game Enchanters, you create an artifact and upgrade it each turn. Every card you take retains some of its power. As you grow stronger, you can take on more powerful monsters and, if you plan well, even defeat a dragon."}, {"image_src": "https://cf.geekdo-images.com/itemrep/img/1JUKx7GSd8mV-F7hmz0Kt6EKpmw=/fit-in/246x300/pic3543505.jpg", "rating": "7.2", "title": "Evolution", "game_length": "60 Min", "players": "2\u20136", "age": "12+", "complexity": "2.45 / 5",
"description": "In Evolution, players adapt their species in a dynamic ecosystem where food is scarce and predators lurk. Traits like Hard Shell and Horns will protect your species from Carnivores, while a Long Neck will help them get food that others cannot reach. With over 4,000 ways to evolve your species, every game becomes a different adventure."}, {"image_src": "https://cf.geekdo-images.com/itemrep/img/W6Stka2LUIxTWXMscoTqKqNosAY=/fit-in/246x300/pic2691976.png", "rating": "5.9", "title": "Exploding Kittens", "game_length": "15 Min", "players": "2\u20135", "age": "7+", "complexity": "1.07 / 5", "description": "Exploding Kittens is a kitty-powered version of Russian Roulette. Players take turns drawing cards until someone draws an exploding kitten and loses the game. The deck is made up of cards that let you avoid exploding by peeking at cards before you draw, forcing your opponent to draw multiple cards, or shuffling the deck."}, {"image_src": "https://cf.geekdo-images.com/itemrep/img/IAIxn2CB7l9cE5UPyXFx35bT5TA=/fit-in/246x300/pic3146943.png", "rating": "8.2", "title": "A Feast for Odin", "game_length": "30\u2013120 Min", "players": "1\u20134", "age": "12+", "complexity": "3.82 / 5", "description": "Using the central board in A Feast for Odin, players have to hunt, gather basic materials, refine those materials, develop their production-buildings, build/buy ships, and raid settlements."}, {"image_src": "https://cf.geekdo-images.com/itemrep/img/o3D15fBxzTt3k2IFZ2u2Xr7Wlyk=/fit-in/246x300/pic2055255.jpg", "rating": "7.8", "title": "Five Tribes", "game_length": "40\u201380 Min", "players": "2\u20134", "age": "13+", "complexity": "2.88 / 5", "description": "Crossing into the Land of 1001 Nights, your caravan arrives at the fabled Sultanate of Naqala. The old sultan just died and control of Naqala is up for grabs! The oracles foretold of strangers who would maneuver the Five Tribes to gain influence over the legendary city-state. Will you fulfill the prophecy? Invoke the old Djinns and move the Tribes into position at the right time, and the Sultanate may become yours!"}, {"image_src": "https://cf.geekdo-images.com/itemrep/img/aUTUgtWTWaNPU5BoeXDClO4ZfGg=/fit-in/246x300/pic1129370.jpg", "rating": "7.2", "title": "Flash Point: Fire Rescue", "game_length": "45 Min", "players": "2\u20136", "age": "10+", "complexity": "2.21 / 5", "description": "The call comes in... \"911, what is your emergency?\" On the other end is a panicked response of \"FIRE!\" Moments later you don the protective suits that will keep you alive, gather your equipment and rush to the scene of a blazing inferno. The team has only seconds to assess the situation and devise a plan of attack \u2013 then you spring into action like the trained professionals that you are. You must face your fears, never give up, and
above all else work as a team because the fire is raging, the building is threatening to collapse, and lives are in danger."}, {"image_src": "https://cf.geekdo-images.com/itemrep/img/fk6VBQOKE4jJuwUYBMpgUlermbM=/fit-in/246x300/pic2439671.png", "rating": "7.0", "title": "Flick 'em Up!", "game_length": "30\u201345 Min", "players": "2\u201310", "age": "7+", "complexity": "1.34 / 5", "description": "The cities in the West are not the safest place to be. In the disc-flicking game Flick 'em Up!, you can become an outlaw and rob banks, free prisoners, attack innocent bystanders... or you could become the Sheriff and try to protect the people of your city from these bandits!"}, {"image_src": "https://cf.geekdo-images.com/itemrep/img/gZdBSpXLStMXF5s54qwZ5-5sIuY=/fit-in/246x300/pic646458.jpg", "rating": "6.8", "title": "Forbidden Island", "game_length": "30 Min", "players": "2\u20134", "age": "10+", "complexity": "1.74 / 5", "description": "Forbidden Island is a visually stunning cooperative board game. Instead of winning by competing with other players like most games, everyone must work together to win the game. Players take turns moving their pawns around the 'island', which is built by arranging the many beautifully screen-printed tiles before play begins. As the game progresses, more and more island tiles sink, becoming unavailable, and the pace increases. Players use strategies to keep the island from sinking, while trying to collect treasures and items. As the water level rises, it gets more difficult- sacrifices must be made."}, {"image_src": "https://cf.geekdo-images.com/itemrep/img/KKlAC6h7c4P5NcgnKugNQGw7hBM=/fit-in/246x300/pic2884287.jpg", "rating": "7.1", "title": "FUSE", "game_length": "10 Min", "players": "1\u20135", "age": "10+", "complexity": "1.72 / 5", "description": "Intruders have made their way onto your ship, and their goal is total destruction! More than twenty bombs have been detected onboard, and the countdown has begun. Your elite Bomb Defusal Team (BDT) has been called upon to neutralize the threat. Does your team have what it takes to work through the intricacies of the bombs and defuse them all in time?"}, {"image_src": "https://cf.geekdo-images.com/itemrep/img/-L-jHRCzGsI4EeQeYSQxIFZ7C8A=/fit-in/246x300/pic3926631.jpg", "rating": "7.4", "title": "Galaxy Trucker", "game_length": "60 Min", "players": "2\u20134", "age": "10+", "complexity": "2.32 / 5", "description": "Now you can join them. You will gain access to prefabricated spaceship components cleverly made from sewer pipes. Can
you build a space ship durable enough to weather storms of meteors? Armed enough to defend against pirates? Big enough to carry a large crew and valuable cargo? Fast enough to get there first?"}, {"image_src": "https://cf.geekdo-images.com/itemrep/img/yB6kOagFzK67tBhnFJ7uJ6VJb1k=/fit-in/246x300/pic1077906.jpg", "rating": "7.7", "title": "A Game of Thrones: The Board Game (Second Edition)", "game_length": "120\u2013240 Min", "players": "3\u20136", "age": "14+", "complexity": "3.69 / 5", "description": "Game description from the publisher:"}, {"image_src": "https://cf.geekdo-images.com/itemrep/img/fTSXnIPakZxjMFxxjLMvxww9KeE=/fit-in/246x300/pic2235441.jpg", "rating": "6.8", "title": "El Gaucho", "game_length": "60 Min", "players": "2\u20134", "age": "10+", "complexity": "2.21 / 5", "description": "In El Gaucho, you take the role of a cattle baron sending your gauchos to the Pampa to collect as much and as stately cattle as possible."}, {"image_src": "https://cf.geekdo-images.com/itemrep/img/p8PxNZYpBZXnrXduLqHayo1WmBI=/fit-in/246x300/pic3505745.jpg", "rating": "7.5", "title": "Glass Road", "game_length": "20\u201380
Min", "players": "1\u20134", "age": "13+", "complexity": "2.97 / 5", "description": "Glass Road is a game that commemorates the 700-year-old tradition of glass-making in the Bavarian Forest. (Today the Glass Road is a route through the Bavarian Forest that takes visitors to many of
the old glass houses and museums of that region.) You must skillfully manage your glass and brick production in order to build the right structures that help you to keep your business flowing. Cut the forest to keep the fires burning in the ovens, and spread and remove ponds, pits and groves to supply yourself with the items you need. Fifteen specialists are there at your side to carry out your orders..."}, {"image_src": "https://cf.geekdo-images.com/itemrep/img/M4kKEoLMFiYnUEHQ5TDFQjjq1nQ=/fit-in/246x300/pic2728138.jpg", "rating": "7.8", "title": "Grand Austria Hotel", "game_length": "60\u2013120 Min", "players": "2\u20134", "age": "12+", "complexity": "3.23 / 5", "description": "In the thick of the Viennese modern age, exquisite caf\u00e9s are competing for customers. Inspiring artists, important politicians, and tourists from all over the world are populating Vienna and in need of a hotel room. This is your opportunity to turn your little caf\u00e9 into a world famous hotel. Hire staff, fulfill the wishes of your guests, and gain the emperor's favor. Only then will your caf\u00e9 become the Grand Austria Hotel."}, {"image_src": "https://cf.geekdo-images.com/itemrep/img/CCTfHcXYf4-3IAujdOTmKZxdBmg=/fit-in/246x300/pic2031777.jpg", "rating": "7.7", "title": "La Granja", "game_length": "90\u2013120 Min", "players": "1\u20134", "age": "12+", "complexity": "3.58 / 5", "description": "In La Granja, players control small farms by the Alpich pond near the village of Esporles on the island of Mallorca. Over time, the players develop their farms and deliver goods to the village. Players are vying to earn the title of \"La Granja\" for their country estate!"}, {"image_src": "https://cf.geekdo-images.com/itemrep/img/QKxPmdl69GqjCUNOd1Cz_VcHYTQ=/fit-in/246x300/pic145572.jpg", "rating": "6.2", "title": "Great Wall of China", "game_length": "30 Min", "players": "2\u20135", "age": "10+", "complexity": "1.87 / 5", "description": "This game lets each player take
on the role of a Northern Chinese prince. His task: the construction of a massive wall. His reward: Honor everlasting! To gain the honor, though, requires some sweat. The requirements are the same for each player. Each player has a set of cards in his color: seven wall cards (worth
1 point), three gate cards (worth 2 points) and one watchtower card (worth 3 points). Additionally, each player gets nine more cards of varying point value and which may also allow special actions to be carried out."}, {"image_src": "https://cf.geekdo-images.com/itemrep/img/e78ghAUynEP72jk7wVvrGRNTK8g=/fit-in/246x300/pic3113247.jpg", "rating": "8.3", "title": "Great Western Trail", "game_length": "75\u2013150 Min", "players": "2\u20134", "age": "12+", "complexity": "3.69 / 5", "description": "Description from the publisher:"}, {"image_src": "https://cf.geekdo-images.com/itemrep/img/bQCAE41BIb8ICz-6ncfm-N7GDPM=/fit-in/246x300/pic1448983.jpg", "rating": "7.0", "title": "Guildhall", "game_length": "30\u201345 Min", "players": "2\u20134", "age": "10+", "complexity": "2.07 / 5", "description": "Progress! That's what these Dark Ages need, someone with a little get-up-and-go. You've been a serf in this one-pig town long enough, and it's time to shake things up. You've opened a guildhall for like-minded professionals from all over Europe to work together, build their trades, and get some economic stability."}, {"image_src": "https://cf.geekdo-images.com/itemrep/img/yYJCFlLQbtdtZ_0Ke0xteequCMw=/fit-in/246x300/pic2007286.jpg", "rating": "7.1", "title": "Hanabi", "game_length": "25 Min", "players": "2\u20135", "age": "8+", "complexity": "1.70 / 5", "description": "Hanabi\u2014named for the Japanese word for \"fireworks\"\u2014is a cooperative game in which players try to create the perfect fireworks show by placing the cards on the table in the right order. (In Japanese, hanabi is written as \u82b1\u706b; these are the ideograms flower and fire, respectively.)"}, {"image_src": "https://cf.geekdo-images.com/itemrep/img/eUEvmjssPvT0uXiMOnCqyAyMSe4=/fit-in/246x300/pic3330230.jpg", "rating": "7.9", "title": "Le Havre", "game_length": "30\u2013150 Min", "players": "1\u20135", "age": "12+", "complexity": "3.75 / 5", "description": "In Le Havre, a player's turn consists of two parts: First, distribute newly supplied goods onto the offer spaces; then take an action. As an action, players may choose either to take all goods of one type from an offer space or to use one of the available buildings. Building actions allow players to upgrade goods, sell them or use them to build their own buildings and ships. Buildings are both an investment opportunity and a revenue stream, as players must pay an entry fee to use buildings that they do not own. Ships, on the other hand, are primarily used to provide the food that is needed to feed the workers."}, {"image_src": "https://cf.geekdo-images.com/itemrep/img/FeYFvtstj0RGKJWF0C7QExIq2Qc=/fit-in/246x300/pic791151.jpg", "rating": "7.3", "title": "Hive", "game_length": "20 Min", "players": "2", "age": "9+", "complexity": "2.34 / 5", "description": "From the Publisher:"}, {"image_src": "https://cf.geekdo-images.com/itemrep/img/D89x8fha72PA4JH2Hq5Mu9Taevo=/fit-in/246x300/pic2871265.jpg", "rating": "7.5", "title": "Imperial Settlers", "game_length": "45\u201390 Min", "players": "1\u20134", "age": "10+", "complexity": "2.77 / 5", "description": "Settlers from four major powers of the world have discovered new lands, with new resources and opportunities. Romans, Barbarians, Egyptians and Japanese all at once move there to expand the boundaries of their empires. They build new buildings to strengthen their economy, they found mines and fields to gather resources, and they build barracks and training grounds to train soldiers. Soon after they discover that this land is far too small for everybody, then the war begins..."}, {"image_src": "https://cf.geekdo-images.com/itemrep/img/jzCZH-XBq7w9IlgtTDg9DY6ffo4=/fit-in/246x300/pic285822.jpg", "rating": "7.4", "title": "In the Year of the Dragon", "game_length": "75\u2013100 Min", "players": "2\u20135", "age": "12+", "complexity": "3.12 / 5", "description": "Stefan Feld's 3rd game by Alea is In the Year of the Dragon."}, {"image_src": "https://cf.geekdo-images.com/itemrep/img/r3ZRlY12R491pwX3XdsezxKp8EM=/fit-in/246x300/pic2966859.png", "rating": "7.2", "title": "Innovation", "game_length": "45\u201360 Min", "players": "2\u20134", "age": "12+", "complexity": "2.72 / 5", "description": "This game by Carl Chudyk is a journey through innovations from the stone age through modern times. Each player builds a civilization based on various technologies, ideas, and cultural advancements, all represented by cards. Each of these cards has a unique power which will allow further advancement, point scoring, or even attacking other civilizations. Be careful though, as other civilizations may be able to benefit from your ideas as well!"}, {"image_src": "https://cf.geekdo-images.com/itemrep/img/29f1Jvu2YVgHv4nMCSeKmQqzfVo=/fit-in/246x300/pic2524838.jpg", "rating": "7.5", "title": "Isle of Skye: From Chieftain to King", "game_length": "30\u201350 Min", "players": "2\u20135", "age": "8+", "complexity": "2.24 / 5", "description": "Isle of Skye is one of the most beautiful places in the world, with soft sand beaches, gently sloping hills, and impressive mountains. The landscape of Isle of Skye is breathtaking and fascinates everyone."}, {"image_src": "https://cf.geekdo-images.com/itemrep/img/2B7S-MRPnxuv_atXG6nWM8kBgy8=/fit-in/246x300/pic1885326.jpg", "rating": "7.6", "title": "Istanbul", "game_length": "40\u201360 Min", "players": "2\u20135", "age": "10+", "complexity": "2.59 / 5", "description": "There's hustle and bustle at Istanbul's grand bazaar as merchants and their assistants rush through the narrow alleys in their attempt to be more successful than their competitors. Everything must be well organized: wheelbarrows must be filled with goods at the warehouses, then swiftly transported by the assistants to various destinations. Your goal? Be the first merchant to collect a certain number of rubies."}, {"image_src": "https://cf.geekdo-images.com/itemrep/img/Q6ENW-VtBFWhypRh3zu_9WMu478=/fit-in/246x300/pic725500.jpg", "rating": "7.5", "title": "Jaipur", "game_length": "30 Min", "players": "2", "age": "12+", "complexity": "1.52 / 5", "description": "You are one of the two most powerful traders in the city of Jaipur, the capital of Rajasthan, but that's not enough for you because only the merchant with two \"seals of excellence\" will have the privilege of being invited to the Maharaja's court. You are therefore going to have to do better than your direct competitor by buying, exchanging, and selling at better prices, all while keeping an eye on both your camel herds."}, {"image_src": "https://cf.geekdo-images.com/itemrep/img/qEV2X3KVOEE_cNowLyIwkJaB-w8=/fit-in/246x300/pic736534.jpg", "rating": "6.5", "title": "Jungle Speed", "game_length": "10 Min", "players": "2\u20138", "age": "7+", "complexity": "1.14 / 5", "description": "In Jungle Speed, you must rely on your keen sense of observation and quick reflexes. It requires a steady hand -- which can be hard to maintain during the many fits of maniacal laughter! The wooden Totem sits in the middle of the table, waiting for the player with the fastest reflexes to snatch it up and win the game."}, {"image_src": "https://cf.geekdo-images.com/itemrep/img/ezxsmDeecQrugNtoim7C30syOQc=/fit-in/246x300/pic3105168.jpg", "rating": "7.2", "title": "Kanagawa", "game_length": "45 Min", "players": "2\u20134", "age": "10+", "complexity": "2.05 / 5", "description": "1840: In Kanagawa, the great bay of Tokyo, the Master Hokusai decided to open a painting school to share his art with his disciples. You are one of these disciples, and more than anything, you want to prove yourself worthy of the \u201ccrazy, old artist\u201d. Follow his teachings to expand your studio and paint your preferred subjects (Trees, Animals, Characters, Buildings), all while paying attention to the changing of the seasons in order to make the most harmonious print\u2026 the one that will become the work of your lifetime!"}, {"image_src": "https://cf.geekdo-images.com/itemrep/img/x2xkZx5yvHsV-OTNJFHEpxeLlVU=/fit-in/246x300/pic2727088.jpg", "rating": "7.2", "title": "Karuba", "game_length": "30\u201340 Min", "players": "2\u20134", "age": "8+", "complexity": "1.45 / 5", "description": "This is a tile-laying race game with players starting with boards that are identical, and one player drawing tiles that they all will use. They race to get their explorers to temples first and earn points. Along the way they can collect additional points by collecting items off the paths they create. The game ends when one player gets all of their explorers to their corresponding temples or whenever the last tile is drawn and placed. Most points wins."}, {"image_src": "https://cf.geekdo-images.com/itemrep/img/l36aUyUaj1t21GChcdgcEDhTazQ=/fit-in/246x300/pic3979527.jpg", "rating": "7.8", "title": "Kemet", "game_length": "90\u2013120 Min", "players": "2\u20135", "age": "13+", "complexity": "2.99 / 5", "description": "In Kemet, players each deploy the troops of an Egyptian tribe and use the mystical powers of the gods of ancient Egypt \u2013 along with their powerful armies \u2013 to score points in glorious battles or through invasion of rich territories. A game is typically played to 8 or 10 victory points, which may be accrued through winning attacks, controlling temples, controlling fully-developed pyramids, sacrificing to the gods, and wielding particular magical powers."}, {"image_src": "https://cf.geekdo-images.com/itemrep/img/wOXROwYuEDNoDY6LhhUPGETrSnM=/fit-in/246x300/pic3043734.jpg", "rating": "7.2", "title": "King of Tokyo", "game_length": "30 Min", "players": "2\u20136", "age": "8+", "complexity": "1.50 / 5", "description": "In King of Tokyo, you play mutant monsters, gigantic robots, and strange aliens\u2014all of whom are destroying Tokyo and whacking each other in order to become the one and only King of Tokyo."}, {"image_src": "https://cf.geekdo-images.com/itemrep/img/DGD75Gra_-zMwIFNHWxRaqFs1Jc=/fit-in/246x300/pic1152359.jpg", "rating": "7.0", "title": "Kingdom Builder", "game_length": "45 Min", "players": "2\u20134", "age": "8+", "complexity": "2.07 / 5", "description": "In Kingdom Builder, the players create their own kingdoms by skillfully building their settlements, aiming to earn the most gold at the end of the game."}, {"image_src": "https://cf.geekdo-images.com/itemrep/img/D3DLTVXuNzL8n2p9BT_2alSfbZs=/fit-in/246x300/pic3132685.png", "rating": "7.4", "title": "Kingdomino", "game_length": "15\u201320 Min", "players": "2\u20134", "age":
"8+", "complexity": "1.20 / 5", "description": "In Kingdomino, you are a Lord seeking new lands in which to expand your kingdom. You must explore all the lands, wheat fields, lakes, and mountains in order to spot the best plots. But be careful as some other Lords also covet these lands..."}, {"image_src": "https://cf.geekdo-images.com/itemrep/img/_BMaPGryOFTHJw8H-dhQJZxXTCE=/fit-in/246x300/pic928373.jpg", "rating": "6.8", "title": "Kolejka", "game_length": "60 Min", "players": "2\u20135", "age": "12+", "complexity": "2.04 / 5", "description": "Get in a queue with your family in front of a store and experience a rush of genuine emotions!"}, {"image_src": "https://cf.geekdo-images.com/itemrep/img/heLnQUcoPY60xhcWunu91usEVmM=/fit-in/246x300/pic1280761.jpg", "rating": "7.4", "title": "Lancaster", "game_length": "60 Min", "players": "2\u20135", "age": "10+", "complexity": "2.99 / 5", "description": "From the designer of Glen More comes a new title published by Queen Games: Lancaster."}, {"image_src": "https://cf.geekdo-images.com/itemrep/img/3vyMB2pfMM7eGvQ9MG70-0cyMX4=/fit-in/246x300/pic1109132.jpg", "rating": "7.2", "title": "Last Will", "game_length": "45\u201375 Min", "players": "2\u20135", "age": "13+", "complexity": "2.70 / 5", "description": "In his last will, your rich uncle stated that all of his millions will go to the nephew who can enjoy money the most. How to find out which nephew should be rich? You will each be given a large amount of money and whoever can spend it first will be the rightful heir. Visit the most exclusive theatres or eat in the most expensive restaurants. Buy old properties for the price of new ones and sell them as ruins. Host a huge party in your mansion or on your private boat. Spend like your life would depend on it. Spend to become rich! If you're the first to run through the money on hand, you'll receive the rest of his inheritance \u2013 oh, and win the game."}, {"image_src": "https://cf.geekdo-images.com/itemrep/img/xVt7LAOVwnCvavkTgQVn1Ur2UDM=/fit-in/246x300/pic1326136.jpg", "rating": "7.2", "title": "Libertalia", "game_length": "45 Min", "players": "2\u20136", "age": "14+", "complexity": "2.23 / 5", "description": "Game description from the publisher:"}, {"image_src": "https://cf.geekdo-images.com/itemrep/img/vO2D3SQSLzho_WJRva7dzII-AQc=/fit-in/246x300/pic3083205.jpg", "rating": "6.9", "title": "The Little Prince: Make Me a Planet", "game_length": "25 Min", "players": "2\u20135", "age": "8+", "complexity": "1.60 / 5", "description": "In The Little Prince: Make Me a
Planet, each player will build his own planet to provide a beautiful home for the dear animals of The Little Prince \u2013 the fox, the sheep, the elephant and the snake \u2013 but make sure there aren't too many volcanoes and baobab trees!"}, {"image_src": "https://cf.geekdo-images.com/itemrep/img/VYYUbyIZHFJSUCS9Os2ndcV041k=/fit-in/246x300/pic1116080.jpg", "rating": "7.8", "title": "Lords of Waterdeep", "game_length": "60\u2013120 Min", "players": "2\u20135", "age": "12+", "complexity": "2.48 / 5", "description": "Game description from the publisher:"}, {"image_src": "https://cf.geekdo-images.com/itemrep/img/x7Xa_F99E1UJXXKp2_NQi-sgwEM=/fit-in/246x300/pic1401448.jpg", "rating": "7.3", "title": "Love Letter", "game_length": "20 Min", "players": "2\u20134", "age": "10+", "complexity": "1.20 / 5", "description": "All of the eligible young men (and many of the not-so-young) seek to woo the princess of Tempest. Unfortunately, she has locked herself in the palace, and you must rely on others to take your romantic letters to her. Will yours reach her first?"}, {"image_src": "https://cf.geekdo-images.com/itemrep/img/ZP7srted28_BaXj5NmqITz5VsMw=/fit-in/246x300/pic3124998.jpg", "rating": "7.6", "title": "Love Letter Premium", "game_length": "20\u201330 Min", "players": "2\u20138", "age": "8+", "complexity": "1.30 / 5", "description": "Love Letter Premium takes the familiar Love Letter game and enhances it in two different ways. First, the cards are supersized and much thicker than normal, the hearts that players claim are large and wooden, and the hard-sided box has a magnetic closure."}, {"image_src": "https://cf.geekdo-images.com/itemrep/img/aUl8H4GzldcS1kPdF8q__rU0B9M=/fit-in/246x300/pic1083380.jpg", "rating": "8.1", "title": "Mage Knight Board Game", "game_length": "60\u2013240 Min", "players": "1\u20134", "age": "14+", "complexity": "4.26 / 5", "description": "The Mage Knight board game puts you in control of one of four powerful Mage Knights as you
explore (and conquer) a corner of the Mage Knight universe under the control of the Atlantean Empire. Build your army, fill your deck with powerful spells and actions, explore caves and dungeons, and eventually conquer powerful cities controlled by this once-great faction! In competitive scenarios, opposing players may be powerful allies, but only one will be able to claim the land as their own. In cooperative scenarios, the players win or lose as a group. Solo rules are also included."}, {"image_src": "https://cf.geekdo-images.com/itemrep/img/dtjTtaCwdumG11lB81d76_CMsJU=/fit-in/246x300/pic3176152.jpg", "rating": "6.9", "title": "The Magic Labyrinth", "game_length": "20\u201330 Min", "players": "2\u20134", "age": "6+", "complexity": "1.25 / 5", "description": "The little magician apprentices have lost some magic objects inside of the master\u2019s maze. Now they try to collect them before the Master notices anything. However, in the maze there are invisible walls and only one of the missing objects is revealed at a time. So they have to make their way through the maze by means of a good memory and lots of skill."}, {"image_src": "https://cf.geekdo-images.com/itemrep/img/B0F4U1vQnELePmNg4n5dtvcryGU=/fit-in/246x300/pic3118622.jpg", "rating": "8.2", "title": "Mansions of Madness: Second Edition", "game_length": "120\u2013180 Min", "players": "1\u20135", "age": "14+", "complexity": "2.67 / 5", "description": "Description from the publisher:"}, {"image_src": "https://cf.geekdo-images.com/itemrep/img/uDiVk4C3ChlENP_P_GmTYbFXq2w=/fit-in/246x300/pic1762410.jpg", "rating": "6.7", "title": "Mascarade", "game_length": "30 Min", "players": "2\u201313", "age": "10+", "complexity": "1.52 / 5", "description": "Players in Mascarade start with six coins and a randomly dealt character card. Characters stay face up just long enough for players to more or less memorize them, then are turned face down. Your goal is to be the first player to hold 13 coins, and while you start nearly halfway to that goal, you can go down just as surely as you can go up!"}, {"image_src": "https://cf.geekdo-images.com/itemrep/img/LD73CGFPVQI4tnpyhu4A96qwChM=/fit-in/246x300/pic2499748.jpg", "rating": "7.5", "title": "Mission: Red Planet (Second Edition)", "game_length": "45\u201390 Min", "players": "2\u20136", "age": "14+", "complexity": "2.23 / 5", "description": "With technology rapidly developing and the human population growing, Victorian-era Earth is in dire need of fuel, land, and other natural resources. Fortunately, automated probes sent to Mars have discovered celerium, an ore that can be combusted to produce ten thousand times more power than a steam engine, and sylvanite, the densest substance ever found. More incredibly, the probes found ice that could be used in terraforming the planet, bringing the idea of colonizing Mars even closer to becoming a reality."}, {"image_src": "https://cf.geekdo-images.com/itemrep/img/NtM4oP3z_8D6Sw9TEcXGjAgdtYU=/fit-in/246x300/pic2611318.jpg", "rating": "7.9", "title": "Mombasa", "game_length": "75\u2013150 Min", "players": "2\u20134", "age": "12+", "complexity": "3.90 / 5", "description": "In Mombasa, players acquire shares of chartered companies based in Mombasa, Cape Town, Saint-Louis, and Cairo and propagate trading posts of these companies throughout the African continent in order to earn the most money."}, {"image_src": "https://cf.geekdo-images.com/itemrep/img/NxMT5yl5OE9jrz9aIaMfGALD8NE=/fit-in/246x300/pic3066125.jpg", "rating": "7.0", "title": "Mr. Jack", "game_length": "30 Min", "players": "2", "age": "9+", "complexity": "2.19 / 5", "description": "In Mr. Jack, one of the two players represents Jack
the Ripper, who will be one of the eight characters on the board. This player knows which character is Mr. Jack, and his goal is to flee from the district as soon as possible (or avoid being accused for eight turns). The other player represents an independent investigator (not represented on the board) who tries to guess the identity of Jack \u2014 but he can make only one accusation during the game!"}, {"image_src": "https://cf.geekdo-images.com/itemrep/img/FZKryLRJc69waq_2V6V10Qkryi0=/fit-in/246x300/pic2830962.jpg", "rating": "6.7", "title": "My First Stone
Age", "game_length": "15 Min", "players": "2\u20134", "age": "5+", "complexity": "1.14 / 5", "description": "Travel to the past with Jonon and Jada, two stone age children, to rediscover how the first humans settled the world around them."}, {"image_src": "https://cf.geekdo-images.com/itemrep/img/P0uDbWvlt4EijKLX8PvDrLTfoPg=/fit-in/246x300/pic3032677.jpg", "rating": "7.0", "title": "Oh My Goods!", "game_length": "30 Min", "players": "2\u20134", "age": "10+", "complexity": "2.25 / 5", "description": "In Oh My Goods!, first released as Royal Goods, players are European artisans during the Middle Ages who produce tools, barrels, glass windows, and many other goods. Only if you make clever use of your production chains will you have the most victory points at the end of the game."}, {"image_src": "https://cf.geekdo-images.com/itemrep/img/0dzPRSXpW_gsHM1ogk4dz1MQ8hY=/fit-in/246x300/pic1809823.jpg", "rating": "7.2", "title": "One Night Ultimate Werewolf", "game_length": "10 Min", "players": "3\u201310", "age": "8+", "complexity": "1.40 / 5", "description": "No moderator, no elimination, ten-minute games."}, {"image_src": "https://cf.geekdo-images.com/itemrep/img/6x94Aw-uwje7cMQa7cP4eD_Bfjg=/fit-in/246x300/pic1686960.jpg", "rating": "6.0", "title": "Ooga Booga", "game_length": "10 Min", "players": "3\u20136", "age": "7+", "complexity": "1.03 / 5", "description": "We return to ancient days, when man
lived in caves and woman lived in adjoining caves and their language consisted of little more than grunts and gestures. Primitive though we may have been, we still dreamed of ruling over everyone else as leader of the clan!"}, {"image_src": "https://cf.geekdo-images.com/itemrep/img/XWdfA6h24FwvVj4x-sYxsaod9Ug=/fit-in/246x300/pic1165426.jpg", "rating": "7.7", "title": "Ora et Labora", "game_length": "60\u2013180 Min", "players": "1\u20134", "age": "13+", "complexity": "3.91 / 5", "description": "In Ora et Labora, each player is head of a monastery in the Medieval era who acquires land and constructs buildings \u2013 little enterprises that will gain resources and profit. The goal is to build a working infrastructure and manufacture prestigious items \u2013 such as books, ceramics, ornaments, and relics \u2013 to gain the most victory points at the end of the game."}, {"image_src": "https://cf.geekdo-images.com/itemrep/img/KpipA6QroEgHFbgcVBNU4DVBIJ4=/fit-in/246x300/pic2578828.png", "rating": "8.1", "title": "Orl\u00e9ans", "game_length": "90 Min", "players": "2\u20134", "age": "12+", "complexity": "3.08 / 5", "description": "During the medieval goings-on around Orl\u00e9ans, you must assemble a following of farmers, merchants, knights, monks, etc. to gain supremacy through trade, construction and science in medieval France."}, {"image_src": "https://cf.geekdo-images.com/itemrep/img/cTrAWasNHyKMcNs8Zrv5O7sKS6M=/fit-in/246x300/pic1534148.jpg", "rating": "7.6", "title": "Pandemic", "game_length": "45 Min", "players": "2\u20134", "age": "8+", "complexity": "2.42 / 5", "description": "In Pandemic, several virulent diseases have broken out simultaneously all over the world! The players are disease-fighting specialists whose mission is to treat disease hotspots while researching cures for each of four plagues before they get out of hand."}, {"image_src": "https://cf.geekdo-images.com/itemrep/img/WPQjScMXWzXotrdyRte5Nw78xdQ=/fit-in/246x300/pic2270442.jpg", "rating": "7.7", "title": "Patchwork", "game_length": "15\u201330 Min", "players": "2", "age": "8+", "complexity": "1.69 / 5", "description": "In Patchwork, two players compete to build the most aesthetic (and high-scoring) patchwork quilt on a personal 9x9 game board. To start play, lay out all of the patches at random in a circle and place a marker directly clockwise of the 2-1 patch. Each player takes five buttons \u2014 the currency/points in the game \u2014 and someone is chosen as the start player."}, {"image_src": "https://cf.geekdo-images.com/itemrep/img/lzDUkc6qbK-pZ_tFU4Pq-NEhhKA=/fit-in/246x300/pic3364832.jpg", "rating": "7.3", "title": "Photosynthesis", "game_length": "30\u201360 Min", "players": "2\u20134", "age": "10+", "complexity": "2.31 / 5", "description": "Description from the publisher:"}, {"image_src": "https://cf.geekdo-images.com/itemrep/img/3rBAt0OIjgvwRpm24Z7gLuMpu7c=/fit-in/246x300/pic4459753.jpg", "rating": "7.9", "title": "Power Grid", "game_length": "120 Min", "players": "2\u20136", "age": "12+", "complexity": "3.28 / 5", "description": "Power Grid is the updated release of the Friedemann Friese crayon game Funkenschlag. It removes the crayon aspect from network building in the original edition, while retaining the fluctuating commodities market like Crude: The Oil Game and an auction round intensity reminiscent of The Princes of Florence."}, {"image_src": "https://cf.geekdo-images.com/itemrep/img/fRwblzsZEhtiA5S5B2BnjwH9Fzw=/fit-in/246x300/pic1306997.jpg", "rating": "7.6", "title": "The Princes of Florence", "game_length": "75\u2013100 Min", "players": "2\u20135", "age": "12+", "complexity": "3.25 / 5", "description": "Players attract artists and scholars trying to become the most prestigious family in Florence. Each player is given a palace grid and reference chart and attempts to gain the most victory points after seven rounds. Scoring victory points can be done in a variety of ways although most will be earned by
playing profession cards to generate work points. There are a variety of professions such as astronomers, organists and architects. Each is attracted to a particular combination of building, landscape feature, and social freedom. The more the player can match these preferences then
the more work points are generated. If a player satisfies the minimum requirement of work points, which increases each round, then the work can be created and the player can then trade the work points for cash and/or victory points."}, {"image_src": "https://cf.geekdo-images.com/itemrep/img/ERdhn-fY5ScWqU1wdYDzEP9LzvM=/fit-in/246x300/pic158548.jpg", "rating": "8.0", "title": "Puerto Rico", "game_length": "90\u2013150 Min", "players": "3\u20135", "age": "12+", "complexity": "3.29 / 5", "description": "In Puerto Rico players assume the roles of colonial governors on the island of Puerto Rico. The aim of the game is to amass victory points by shipping goods to Europe or by constructing buildings."}, {"image_src": "https://cf.geekdo-images.com/itemrep/img/BMUcxCZM_AikQ7uXeuDg43RZIWo=/fit-in/246x300/pic2840020.jpg", "rating": "7.3", "title":
"Quadropolis", "game_length": "30\u201360 Min", "players": "2\u20134", "age": "8+", "complexity": "2.20 / 5", "description": "Each player builds their own metropolis in Quadropolis (first announced as City Mania), but they're competing with one another for the shops, parks, public services and other structures to be placed in them."}, {"image_src": "https://cf.geekdo-images.com/itemrep/img/hr5yfSgKyNFc6Botw2TXKYb2AB4=/fit-in/246x300/pic2247258.png", "rating": "7.0", "title": "Red7", "game_length": "5\u201330 Min", "players": "2\u20134", "age": "9+", "complexity": "1.67 / 5", "description": "The rules of \"Red\" are simple: highest card wins! But \"Red\" is just one of seven games you'll be playing in Red7, and if you're not winning the current game at the end of your turn, you're out! The last person standing wins the round."}, {"image_src": "https://cf.geekdo-images.com/itemrep/img/yottt6aVvGBSOp3D0k4dno5_n3Y=/fit-in/246x300/pic1398895.jpg", "rating": "7.6", "title": "The Resistance: Avalon", "game_length": "30 Min", "players": "5\u201310", "age": "13+", "complexity": "1.78 / 5", "description": "The Resistance: Avalon pits the forces of Good and Evil in a battle to control the future of civilization. Arthur represents the future of Britain, a promise of prosperity and honor, yet hidden among his brave warriors are Mordred's unscrupulous minions. These forces of evil are few in number but have knowledge of each other and remain hidden from all but one of Arthur's servants. Merlin alone knows the agents of evil, but he must speak of this only in riddles. If his true identity is discovered, all will be lost."}, {"image_src": "https://cf.geekdo-images.com/itemrep/img/Uu7GiLNG7TahJWl6TTZhveEDnj4=/fit-in/246x300/pic259123.jpg", "rating": "6.8", "title": "Ribbit", "game_length": "20 Min", "players": "2\u20135", "age": "5+", "complexity": "1.10 / 5", "description": "Turtle Race"}, {"image_src": "https://cf.geekdo-images.com/itemrep/img/7KmSH1xYiDDOcIQptnQoXSeOfLU=/fit-in/246x300/pic3880340.jpg", "rating": "8.0", "title": "Rising Sun", "game_length": "90\u2013120 Min", "players": "3\u20135", "age": "14+", "complexity": "3.25 / 5", "description": "Rising Sun is a spiritual successor in the same mythic big box series as Blood Rage: same designer, same artist, same studio and same sculptors."}, {"image_src": "https://cf.geekdo-images.com/itemrep/img/K-59vHkQA06hdt-vKjkgLBLDGCQ=/fit-in/246x300/pic1772936.jpg", "rating": "7.8", "title": "Russian Railroads", "game_length": "90\u2013120 Min", "players": "2\u20134", "age": "12+", "complexity": "3.41 / 5", "description": "In Russian Railroads, players compete in an exciting race to build the largest and most advanced railway network. In order to do so, the players appoint their workers to various important tasks."}, {"image_src": "https://cf.geekdo-images.com/itemrep/img/aoCM1KdOmd7w56bQr4JSKWdDpaE=/fit-in/246x300/pic3989824.jpg", "rating": "6.6", "title": "Saboteur", "game_length": "30 Min", "players": "3\u201310", "age": "8+", "complexity": "1.33 / 5", "description": "Players take on the role of dwarves. As miners, they are in a mine, hunting for gold. Suddenly, a pick axe swings down and shatters the mine lamp. The saboteur has struck. But which of the players are saboteurs? Will you find the gold, or will the fiendish actions of the saboteurs lead them to it first? After three rounds, the player with the most gold is the winner."}, {"image_src": "https://cf.geekdo-images.com/itemrep/img/WCaiBQZuBBcNmbnyRe2ndDdMGWA=/fit-in/246x300/pic3989507.png", "rating": "7.0", "title": "Saboteur 2 (expansion-only editions)", "game_length": "45 Min", "players": "2\u201312", "age": "8+", "complexity": "1.53 / 5", "description": "(Note: This listing covers only the expansion-only versions of Saboteur 2; for the Saboteur 2 listing that includes both the base game and the expansion, go to Saboteur (compilation editions).)"}, {"image_src": "https://cf.geekdo-images.com/itemrep/img/gLHDC5bCrxd1JhefjJ-VxW2zC54=/fit-in/246x300/pic3163924.jpg", "rating": "8.3", "title": "Scythe", "game_length": "90\u2013115 Min", "players": "1\u20135", "age": "14+", "complexity": "3.37 / 5", "description": "It is a time of unrest in 1920s Europa. The ashes from the first great war still darken the snow. The capitalistic city-state known simply as \u201cThe Factory\u201d, which fueled the war with heavily armored mechs, has closed its doors, drawing the attention of several nearby countries."}, {"image_src": "https://cf.geekdo-images.com/itemrep/img/Db4zMa56H9x0S474i8w5ilP9PiE=/fit-in/246x300/pic1299390.jpg", "rating": "7.4", "title": "Seasons", "game_length": "60 Min", "players": "2\u20134", "age": "14+", "complexity": "2.77 / 5", "description": "The greatest sorcerers of the kingdom have gathered at the heart of the Argos forest, where the legendary tournament of the 12 seasons is taking place. At the end of the three year competition, the new archmage of the kingdom of Xidit will be chosen from among the competitors. Take your place, wizard! Equip your ancestral magical items, summon your most faithful familiars to your side and be ready to face the challenge!"}, {"image_src": "https://cf.geekdo-images.com/itemrep/img/ue8OIdjUCpDrnM9Y0ZXKuDdk8Y8=/fit-in/246x300/pic2075830.jpg", "rating": "7.2", "title": "Sheriff of Nottingham", "game_length": "60 Min", "players": "3\u20135", "age": "13+", "complexity": "1.66 / 5", "description": "Prince John is coming to Nottingham! Players, in the role of merchants, see this as an opportunity to make quick profits by selling goods in the bustling city during the Prince's visit. However, players must first get their goods through the city gate, which is under the watch of the Sheriff of Nottingham. Should you play it safe with legal goods and make a profit, or risk it all by sneaking in illicit goods? Be mindful, though, as the Sheriff always has his eyes out for liars and tricksters and if he catches one, he very well may confiscate those goods for himself!"}, {"image_src": "https://cf.geekdo-images.com/itemrep/img/CokF4daFon_QDHbzx1wPYKUz8rI=/fit-in/246x300/pic428828.jpg", "rating": "7.3", "title": "Small World", "game_length": "40\u201380 Min", "players": "2\u20135", "age": "8+", "complexity": "2.37 / 5", "description": "In Small World, players vie for conquest and control of a world that is simply too small to accommodate them all."}, {"image_src": "https://cf.geekdo-images.com/itemrep/img/CI2SNGZBBHstCGfq92DXdolodS4=/fit-in/246x300/pic384313.jpg", "rating": "7.5", "title": "Space Alert", "game_length": "30 Min", "players": "1\u20135", "age": "12+", "complexity": "2.94 / 5", "description": "Space Alert is a cooperative team survival game. Players become crew members of a small spaceship scanning dangerous sectors of the galaxy. The missions last just 10 real-time minutes (hyperspace jump, sector scan, hyperspace jump back) and the only task the players have is to protect their ship."}, {"image_src": "https://cf.geekdo-images.com/itemrep/img/-QfR5Pu7kXeI0JWRDeJN3kV42Ko=/fit-in/246x300/pic1904079.jpg", "rating": "7.5", "title": "Splendor", "game_length": "30 Min", "players": "2\u20134", "age": "10+", "complexity": "1.82 / 5", "description": "Splendor is a game of chip-collecting and card development. Players are merchants of the Renaissance trying to buy gem mines, means of transportation, shops\u2014all in order to acquire the most prestige points. If you're wealthy enough, you might even receive a visit from a noble at some point, which of course will further increase your prestige."}, {"image_src": "https://cf.geekdo-images.com/itemrep/img/ACCcLzG6a8rcj0axqkKIcvscqYs=/fit-in/246x300/pic3711701.jpg", "rating": "7.5", "title": "Splendor: Cities of Splendor", "game_length": "30 Min", "players": "2\u20134", "age": "10+", "complexity": "2.32 / 5", "description": "Cities of Splendor is a quartet of expansions for use with the Splendor base game. Each expansion is added to the basic game and they should be played separately."}, {"image_src": "https://cf.geekdo-images.com/itemrep/img/yN5dhMmsS8W5CiOgACTgXzQtxE4=/fit-in/246x300/pic1203476.jpg", "rating": "6.7", "title": "Spot it!", "game_length": "15 Min", "players": "2\u20138", "age": "7+", "complexity": "1.03 / 5", "description": "Spot it!, a.k.a. Dobble, is a simple pattern recognition game in which players try to find an image shown on two cards."}, {"image_src": "https://cf.geekdo-images.com/itemrep/img/Rre-D9b80DvMeIgpcWDL8zMfyPk=/fit-in/246x300/pic1632539.jpg", "rating": "7.6", "title": "Stone Age", "game_length": "60\u201390 Min", "players": "2\u20134", "age": "10+", "complexity": "2.49 / 5", "description": "The \"Stone Age\" times were hard indeed. In their roles as hunters, collectors, farmers, and tool makers, our ancestors worked with their legs and backs straining against wooden plows in the stony earth. Of course, progress did not stop with the wooden plow. People always searched for better tools and more productive plants to make their work more effective."}, {"image_src": "https://cf.geekdo-images.com/itemrep/img/C3YpKmWSyiVJZuVxRDAziMprg5g=/fit-in/246x300/pic1418335.jpg", "rating": "7.6", "title": "Suburbia", "game_length": "90 Min", "players": "1\u20134", "age": "8+", "complexity": "2.77 / 5", "description": "Plan, build, and develop a small town into a major metropolis. Use hex-shaped building tiles to add residential, commercial, civic, and industrial areas, as well as special points of interest that provide benefits and take advantage of the resources of nearby towns. Your goal is to have your borough thrive and end up with a greater population than any of your opponents."}, {"image_src": "https://cf.geekdo-images.com/itemrep/img/QLBjrX0LZsJl5dDRreXz0BA1FM4=/fit-in/246x300/pic2617634.png", "rating": "7.8", "title": "T.I.M.E Stories", "game_length": "90 Min", "players": "2\u20134", "age": "12+", "complexity": "2.63 /
5", "description": "Description from the publisher:"}, {"image_src": "https://cf.geekdo-images.com/itemrep/img/2TV4QCWrbMeo_n1nVV3XsJNWmjU=/fit-in/246x300/pic4100847.jpg", "rating": "6.3", "title": "Taboo", "game_length": "20 Min", "players": "4\u201310", "age": "12+", "complexity": "1.23 / 5", "description": "Taboo is a party word game. Players take turns describing a word or phrase on a drawn card to their partner without using five common additional words or phrases also on the card. The opposing partners watch a timer and use a buzzer to stop the game, buzz the player describing if one of the five off limits words or phrases is used, or the describing player makes any gestures. The describing team gets a point for each card they guess successfully and the opposing team gets a point for each card they pass on, make gestures on, or lose for saying one of the off limits words or phrases. An excellent party game!"}, {"image_src": "https://cf.geekdo-images.com/itemrep/img/EZJe6nS4GcZJ6-7CQxiv6S7RwZ4=/fit-in/246x300/pic2601636.jpg", "rating": "7.3", "title": "Tajemnicze Domostwo", "game_length": "30\u201360 Min", "players": "2\u20137", "age": "8+", "complexity": "1.87 / 5", "description": "Tajemnicze Domostwo is a purely co-operative game for 2-7 players. One player takes the role of a helpful ghost who lives in a mysterious ancient manor. Other players are a group of psychics invited by the manor owner to solve the mystery of the place and bring peace to its residents, as any person who stays in the castle sees strange dreams."}, {"image_src": "https://cf.geekdo-images.com/itemrep/img/DGncmXwZ0_s3BCzsUi9AXdX2Tdk=/fit-in/246x300/pic1912529.jpg", "rating": "7.3", "title":
"Takenoko", "game_length": "45 Min", "players": "2\u20134", "age": "8+", "complexity": "1.98 / 5", "description": "A long time ago at the Japanese Imperial court, the Chinese Emperor offered a giant panda bear as a symbol of peace to the Japanese Emperor. Since then, the Japanese Emperor has entrusted his court members (the players) with the difficult task of caring for the animal by tending to his bamboo garden."}, {"image_src": "https://cf.geekdo-images.com/itemrep/img/jXLyHHlBwJZmO0uGM4QCTH73q6U=/fit-in/246x300/pic332870.jpg", "rating": "6.5", "title": "Talisman (Revised 4th Edition)", "game_length": "90 Min", "players": "2\u20136", "age": "13+", "complexity": "2.19 / 5", "description": "Theme:"}, {"image_src": "https://cf.geekdo-images.com/itemrep/img/Qo_BGFiYecx9jqEkPVkKPfoCC3o=/fit-in/246x300/pic1948254.png", "rating": "7.2", "title": "Taluva", "game_length": "45 Min", "players": "2\u20134", "age": "8+", "complexity": "2.28 / 5", "description": "In Taluva, players attempt to successfully settle a South Sea island slowly emerging from the ocean waters as volcano after volcano erupts."}, {"image_src": "https://cf.geekdo-images.com/itemrep/img/zm6mWUEYg2Yco_sJpjmN1DBZZv8=/fit-in/246x300/pic1356616.jpg", "rating": "8.2", "title": "Terra Mystica", "game_length": "60\u2013150 Min", "players": "2\u20135", "age": "12+", "complexity": "3.95 / 5", "description": "In the land of Terra Mystica dwell 14 different peoples in seven landscapes, and each group is bound to its own home environment, so to develop and grow, they must terraform neighboring landscapes into their home environments in competition with the other groups."}, {"image_src": "https://cf.geekdo-images.com/itemrep/img/bhemoxL7PG1a_79L0D9syPTADSY=/fit-in/246x300/pic3536616.jpg", "rating": "8.4", "title": "Terraforming Mars", "game_length": "120 Min", "players": "1\u20135", "age": "12+", "complexity": "3.23 / 5", "description": "In the 2400s, mankind begins to terraform the planet Mars. Giant corporations, sponsored by the World Government on Earth, initiate huge projects to raise the temperature, the oxygen level, and the ocean coverage until the environment is habitable. In Terraforming Mars, you play one of those corporations and work together in the terraforming process, but compete for getting victory points that are awarded not only for your contribution to the terraforming, but also for advancing human infrastructure throughout the solar system, and doing other commendable things."}, {"image_src": "https://cf.geekdo-images.com/itemrep/img/32e-PrFMZ0-P_KsnZHApZazlPqc=/fit-in/246x300/pic2663291.jpg", "rating": "8.5", "title": "Through the Ages: A New Story of Civilization", "game_length": "120 Min", "players": "2\u20134", "age": "14+", "complexity": "4.37 / 5", "description": "Through the Ages: A New Story of Civilization is the new edition of Through the Ages: A Story of Civilization, with many changes small and large to the game's cards over its three ages and extensive changes to how military works."}, {"image_src": "https://cf.geekdo-images.com/itemrep/img/UgE1nOg6-R_l9vTVvKb7bDi92Jw=/fit-in/246x300/pic169494.jpg", "rating": "7.6", "title": "Tichu", "game_length": "60 Min", "players": "4", "age": "10+", "complexity": "2.34 / 5", "description": "Tichu took much of its rules and mechanics from Zheng Fen. It is a partnership climbing card game, and the object of play is to rid yourself of your hand, preferably while scoring points in the process."}, {"image_src": "https://cf.geekdo-images.com/itemrep/img/y1krt9EuXgDh5ZzR8ukavxivTcY=/fit-in/246x300/pic1077579.jpg", "rating": "7.7", "title": "Ticket to Ride Map Collection: Volume 1 \u2013 Team Asia & Legendary Asia", "game_length": "30\u201360 Min", "players": "2\u20136", "age": "8+", "complexity": "1.98 / 5", "description": "Days of Wonder's Ticket to Ride Map Collection is a series of expansions for Alan R. Moon's Ticket to Ride, with each expansion including a double-sided game board and destination tickets and rules for those locations."}, {"image_src": "https://cf.geekdo-images.com/itemrep/img/Ad3QYcq8XgtTfF8T3swpzn70zeE=/fit-in/246x300/pic66668.jpg", "rating": "7.6", "title": "Ticket to Ride: Europe", "game_length": "30\u201360 Min", "players": "2\u20135", "age": "8+", "complexity": "1.96 / 5", "description": "Ticket to Ride: Europe takes you on a new train adventure across Europe. From Edinburgh to Constantinople and from Lisbon to Moscow, you'll visit great cities of turn-of-the-century Europe. Like the original Ticket to Ride, the game remains elegantly simple, can be learned in 5 minutes, and appeals to both families and experienced gamers. Ticket to Ride: Europe is a complete, new game and does not require the original version."}, {"image_src": "https://cf.geekdo-images.com/itemrep/img/c-lieMle6_85oQMFFKj-glPQlUM=/fit-in/246x300/pic3381772.jpg", "rating": "7.1", "title": "Ticket to Ride: First Journey (Europe)", "game_length": "15\u201330 Min", "players": "2\u20134", "age": "6+", "complexity": "1.53 / 5", "description": "Ticket to Ride: First Journey takes the gameplay of the Ticket to Ride series and scales it down for a younger audience."}, {"image_src": "https://cf.geekdo-images.com/itemrep/img/aCFfUlyjOiNdiN8Z2VNetAXJkoc=/fit-in/246x300/pic3690440.jpg", "rating": "7.3", "title": "Time's Up!", "game_length": "90 Min", "players": "4\u201318", "age": "12+", "complexity": "1.22 / 5", "description": "Time's Up! is a charades-based party game for teams of two or more players (and is best with teams of two). Before the game begins, each player looks at several cards featuring famous historical or fictional characters and chooses some of them. Each player's cards are shuffled to form a deck, and this deck of famous names is used for each of the game's three rounds."}, {"image_src": "https://cf.geekdo-images.com/itemrep/img/b_e4XpscBGs5NqItGukXuGWX6bY=/fit-in/246x300/pic393663.jpg", "rating": "7.4", "title": "Time's Up! Edici\u00f3n Amarilla", "game_length": "30 Min", "players": "4\u201312", "age": "\u2013\u2013", "complexity": "1.13 / 5", "description": "Time's Up! Edici\u00f3n Amarilla (Yellow edition) is a new edition of popular Time's Up! game"}, {"image_src": "https://cf.geekdo-images.com/itemrep/img/sm-irryPmoLxS0yDLmfAEtJjvEQ=/fit-in/246x300/pic4239139.png", "rating": "6.7", "title": "Timeline: Inventions", "game_length": "15 Min", "players": "2\u20138", "age": "8+", "complexity": "1.11 / 5", "description": "Timeline: Inventions is a card game played using 55 cards. Each card depicts an invention on both sides, with the year in which that invention was created on only one side. Players take turns placing a card from their hand in a row on the table. After placing the card, the player reveals the date on it. If the card was placed correctly with the date in chronological order with all other cards on the table, the card stays in place; otherwise the card is removed from play and the player takes another card from the deck."}, {"image_src": "https://cf.geekdo-images.com/itemrep/img/kvH6uXucqzEUUPH4O3exO1gb-sM=/fit-in/246x300/pic3180463.jpg", "rating": "6.7", "title": "Timeline: Polska", "game_length": "15 Min", "players": "2\u20138", "age": "8+", "complexity": "1.25 / 5", "description": "Timeline: Polska is a card game played using 110 cards. Each card depicts a historical event from Polish history on both sides, with the year in which that event occurred on only one side. Players take turns placing a card from their hand in a row on the table. After placing the card, the player reveals the date on it. If the card was placed correctly with the date in chronological order with all other cards on the table, the card stays in place; otherwise the card is removed from play and the player takes another card from the deck."}, {"image_src": "https://cf.geekdo-images.com/itemrep/img/P6pAwyccWdZaBXLzI1kpc8TINk4=/fit-in/246x300/pic3747956.png", "rating": "7.0", "title": "Tokaido", "game_length": "45 Min", "players": "2\u20135", "age": "8+", "complexity": "1.76 / 5", "description": "In Tokaido, each player is a traveler crossing the \"East sea road\", one of the most magnificent roads of Japan. While traveling, you will meet people, taste fine meals, collect beautiful items, discover great panoramas, and visit temples and wild places but at the end of the day, when everyone has arrived at the end of the road you'll have to be the most initiated traveler \u2013 which means that you'll have to be the one who discovered the most interesting and varied things."}, {"image_src": "https://cf.geekdo-images.com/itemrep/img/1fsBq_CC6bRA-vg3f9om1pwRIJ8=/fit-in/246x300/pic750583.jpg", "rating": "7.8", "title": "Troyes", "game_length": "90 Min", "players": "2\u20134", "age": "12+", "complexity": "3.45 / 5", "description": "In Troyes, recreate four centuries of history of this famous city of the Champagne region of France. Each player manages their segment of the population (represented by a horde of dice) and their hand of cards, which represent the three primary domains of the city: religious, military, and civil. Players can also offer cash to their opponents' populace in order to get a little moonlighting out of them\u2014anything for more fame!"}, {"image_src": "https://cf.geekdo-images.com/itemrep/img/IMHJCAJRZQuPEHO6YtQbjDjEcKM=/fit-in/246x300/pic196428.jpg", "rating": "4.5", "title": "Twister", "game_length": "10 Min", "players": "2\u20134", "age": "6+", "complexity": "1.09 / 5", "description": "A large vinyl playing mat is placed on the floor, with a 6 x 4 array of spots, each spot about 6 inches in diameter. The spots are colored red, blue, yellow, and green. A player is chosen to moderate, and the rest of the players, up to 4, stand on the play mat with their feet on different spots."}, {"image_src": "https://cf.geekdo-images.com/itemrep/img/mtzK53c4pMNP5tlK_ND5KAY0kJk=/fit-in/246x300/pic1413480.jpg", "rating": "7.9", "title": "Tzolk'in: The Mayan Calendar", "game_length": "90 Min", "players": "2\u20134", "age": "13+", "complexity": "3.65 / 5", "description": "Tzolkin: The Mayan Calendar presents a new game mechanism: dynamic worker placement. Players representing different Mayan tribes place their workers on giant connected gears, and as the gears rotate they take the workers to different action spots."}]